<?xml version="1.0" encoding="UTF-8"?>
<session version="1.0">
<refactoring comment="Rename type &apos;clases.Personajes&apos; to &apos;Personaje&apos;&#x0D;&#x0A;- Original project: &apos;Practica4_AdrianOmbria&apos;&#x0D;&#x0A;- Original element: &apos;clases.Personajes&apos;&#x0D;&#x0A;- Renamed element: &apos;clases.Personaje&apos;&#x0D;&#x0A;- Update references to refactored element&#x0D;&#x0A;- Update textual occurrences in comments and strings" description="Rename type &apos;Personajes&apos;" flags="589830" id="org.eclipse.jdt.ui.rename.type" input="/src&lt;clases{Personajes.java[Personajes" matchStrategy="1" name="Personaje" qualified="false" references="true" similarDeclarations="false" stamp="1583774437698" textual="false" version="1.0"/>
</session>